{
  "profiles": {
    "GitlabTest": {
      "commandName": "Project",
      "environmentVariables": {
        "ASPNETCORE_ENVIRONMENT": "Development"
      },
      "dotnetRunMessages": "true",
      "applicationUrl": "http://localhost:5000"
    }
  }
}